\begin{thebibliography}{1}

\bibitem{cnn}
{\em Convolutional Neural Networks for Visual Recognition}.
\newblock \url{http://cs231n.github.io/convolutional-networks/}.

\bibitem{unm}
M.~Čupić B.~Dalbelo~Bašić, J.~Šnajder.
\newblock {\em Umjetne neuronske mreže}, 2008.
\newblock
  \url{https://www.fer.unizg.hr/_download/repository/UmjetneNeuronskeMreze.pdf}.

\bibitem{mit}
Ian Goodfellow, Yoshua Bengio, and Aaron Courville.
\newblock {\em Deep Learning}.
\newblock MIT Press, 2016.
\newblock \url{http://www.deeplearningbook.org}.

\bibitem{raspb}
Dan Nixon.
\newblock {\em Getting Started with Python and Raspberry Pi}.
\newblock 2015.
\newblock
  \url{http://www.allitebooks.com/getting-started-with-python-and-raspberry-pi/}.

\bibitem{du}
S.~Šegvić.
\newblock {\em Predavanja iz kolegija Duboko Učenje, FER}.
\newblock \url{http://www.zemris.fer.hr/~ssegvic/du/}.

\end{thebibliography}
