\relax 
\providecommand\hyper@newdestlabel[2]{}
\providecommand\HyperFirstAtBeginDocument{\AtBeginDocument}
\HyperFirstAtBeginDocument{\ifx\hyper@anchor\@undefined
\global\let\oldcontentsline\contentsline
\gdef\contentsline#1#2#3#4{\oldcontentsline{#1}{#2}{#3}}
\global\let\oldnewlabel\newlabel
\gdef\newlabel#1#2{\newlabelxx{#1}#2}
\gdef\newlabelxx#1#2#3#4#5#6{\oldnewlabel{#1}{{#2}{#3}}}
\AtEndDocument{\ifx\hyper@anchor\@undefined
\let\contentsline\oldcontentsline
\let\newlabel\oldnewlabel
\fi}
\fi}
\global\let\hyper@last\relax 
\gdef\HyperFirstAtBeginDocument#1{#1}
\providecommand\HyField@AuxAddToFields[1]{}
\providecommand\HyField@AuxAddToCoFields[2]{}
\select@language{croatian}
\@writefile{toc}{\select@language{croatian}}
\@writefile{lof}{\select@language{croatian}}
\@writefile{lot}{\select@language{croatian}}
\@writefile{toc}{\contentsline {chapter}{\numberline {1}Uvod}{1}{chapter.1}}
\@writefile{lof}{\addvspace {10\p@ }}
\@writefile{lot}{\addvspace {10\p@ }}
\@writefile{toc}{\contentsline {chapter}{\numberline {2}Opis problema}{2}{chapter.2}}
\@writefile{lof}{\addvspace {10\p@ }}
\@writefile{lot}{\addvspace {10\p@ }}
\@writefile{toc}{\contentsline {chapter}{\numberline {3}Kori\IeC {\v s}teni razvojni alati i biblioteke}{3}{chapter.3}}
\@writefile{lof}{\addvspace {10\p@ }}
\@writefile{lot}{\addvspace {10\p@ }}
\@writefile{toc}{\contentsline {section}{\numberline {3.1}Python 3 (3.5.2)}{3}{section.3.1}}
\@writefile{lof}{\contentsline {figure}{\numberline {3.1}{\ignorespaces Programski jezik Python\relax }}{3}{figure.caption.2}}
\@writefile{toc}{\contentsline {section}{\numberline {3.2}Tensorflow}{4}{section.3.2}}
\@writefile{lof}{\contentsline {figure}{\numberline {3.2}{\ignorespaces TensorFlow, biblioteka za strojno i duboko u\IeC {\v c}enje\relax }}{4}{figure.caption.3}}
\@writefile{toc}{\contentsline {section}{\numberline {3.3}Keras}{4}{section.3.3}}
\@writefile{lof}{\contentsline {figure}{\numberline {3.3}{\ignorespaces Keras, API za strojno i duboko u\IeC {\v c}enje\relax }}{4}{figure.caption.4}}
\@writefile{toc}{\contentsline {section}{\numberline {3.4}OpenCV}{5}{section.3.4}}
\@writefile{lof}{\contentsline {figure}{\numberline {3.4}{\ignorespaces OpenCV, biblioteka za ra\IeC {\v c}unalni vid\relax }}{5}{figure.caption.5}}
\@writefile{toc}{\contentsline {section}{\numberline {3.5}NumPy}{5}{section.3.5}}
\@writefile{lof}{\contentsline {figure}{\numberline {3.5}{\ignorespaces Numpy, Pyhton paket za znanstveno ra\IeC {\v c}unanje\relax }}{6}{figure.caption.6}}
\@writefile{toc}{\contentsline {section}{\numberline {3.6}OpenALPR}{6}{section.3.6}}
\@writefile{lof}{\contentsline {figure}{\numberline {3.6}{\ignorespaces OpenALPR, biblioteka za raspoznavanje registarskih tablica\relax }}{6}{figure.caption.7}}
\@writefile{toc}{\contentsline {section}{\numberline {3.7}PyQt}{6}{section.3.7}}
\@writefile{lof}{\contentsline {figure}{\numberline {3.7}{\ignorespaces Qt (PyQt), okvir za razvoj grafi\IeC {\v c}kog korisni\IeC {\v c}kog su\IeC {\v c}elja\relax }}{7}{figure.caption.8}}
\@writefile{toc}{\contentsline {section}{\numberline {3.8}PyCharm}{7}{section.3.8}}
\@writefile{lof}{\contentsline {figure}{\numberline {3.8}{\ignorespaces PyCharm, integrirano razvojno okru\IeC {\v z}enje za programski jezik Python\relax }}{7}{figure.caption.9}}
\@writefile{toc}{\contentsline {section}{\numberline {3.9}Git}{7}{section.3.9}}
\@writefile{lof}{\contentsline {figure}{\numberline {3.9}{\ignorespaces Git, sustav za upravljanje izvornim kodom\relax }}{8}{figure.caption.10}}
\@writefile{toc}{\contentsline {section}{\numberline {3.10}Linux Mint}{8}{section.3.10}}
\@writefile{lof}{\contentsline {figure}{\numberline {3.10}{\ignorespaces Linux Mint, distribucija operacijskog sustava Linux\relax }}{8}{figure.caption.11}}
\@writefile{toc}{\contentsline {section}{\numberline {3.11}Raspberry Pi 3 (Model B+)}{8}{section.3.11}}
\@writefile{lof}{\contentsline {figure}{\numberline {3.11}{\ignorespaces Raspberry Pi, serija ra\IeC {\v c}unala na jednoj plo\IeC {\v c}ici\relax }}{9}{figure.caption.12}}
\@writefile{toc}{\contentsline {chapter}{\numberline {4}Duboko u\IeC {\v c}enje i konvolucijske neuronske mre\IeC {\v z}e}{10}{chapter.4}}
\@writefile{lof}{\addvspace {10\p@ }}
\@writefile{lot}{\addvspace {10\p@ }}
\@writefile{toc}{\contentsline {section}{\numberline {4.1}Uvod}{10}{section.4.1}}
\@writefile{toc}{\contentsline {section}{\numberline {4.2}Unaprijedne neuronske mre\IeC {\v z}e}{11}{section.4.2}}
\@writefile{toc}{\contentsline {subsection}{\numberline {4.2.1}Jednoslojni perceptron}{11}{subsection.4.2.1}}
\@writefile{lof}{\contentsline {figure}{\numberline {4.1}{\ignorespaces Jednoslojni pereptron, SLP\relax }}{11}{figure.caption.13}}
\@writefile{toc}{\contentsline {subsection}{\numberline {4.2.2}Vi\IeC {\v s}eslojni perceptron}{11}{subsection.4.2.2}}
\@writefile{lof}{\contentsline {figure}{\numberline {4.2}{\ignorespaces Vi\IeC {\v s}eslojni pereptron, MLP\relax }}{12}{figure.caption.14}}
\@writefile{toc}{\contentsline {subsection}{\numberline {4.2.3}Osnovni duboki modeli}{12}{subsection.4.2.3}}
\@writefile{lof}{\contentsline {figure}{\numberline {4.3}{\ignorespaces Tipi\IeC {\v c}na klasifikatorska arhitektura\relax }}{12}{figure.caption.15}}
\citation{cnn}
\citation{mit}
\@writefile{toc}{\contentsline {section}{\numberline {4.3}Konvolucijske neuronske mre\IeC {\v z}e}{13}{section.4.3}}
\@writefile{lof}{\contentsline {figure}{\numberline {4.4}{\ignorespaces Mapa zna\IeC {\v c}ajki i primjer njene povezanosti\relax }}{13}{figure.caption.16}}
\@writefile{toc}{\contentsline {subsection}{\numberline {4.3.1}Struktura konvolucijskih neuronskih mre\IeC {\v z}a}{13}{subsection.4.3.1}}
\@writefile{lof}{\contentsline {figure}{\numberline {4.5}{\ignorespaces Op\IeC {\'c}enita struktura konvolucijskih neuronskih mre\IeC {\v z}a\relax }}{14}{figure.caption.17}}
\@writefile{toc}{\contentsline {subsection}{\numberline {4.3.2}Zna\IeC {\v c}ajke konvolucijskih neuronskih mre\IeC {\v z}a}{14}{subsection.4.3.2}}
\citation{du}
\@writefile{toc}{\contentsline {chapter}{\numberline {5}U\IeC {\v c}enje konvolucijskih neuronskih mre\IeC {\v z}a}{15}{chapter.5}}
\@writefile{lof}{\addvspace {10\p@ }}
\@writefile{lot}{\addvspace {10\p@ }}
\@writefile{toc}{\contentsline {section}{\numberline {5.1}Gradijentni spust}{15}{section.5.1}}
\@writefile{lof}{\contentsline {figure}{\numberline {5.1}{\ignorespaces Algoritam radijentnog spusta\relax }}{15}{figure.caption.18}}
\@writefile{toc}{\contentsline {subsection}{\numberline {5.1.1}Varijante gradijentnog spusta}{16}{subsection.5.1.1}}
\@writefile{lof}{\contentsline {figure}{\numberline {5.2}{\ignorespaces Grafi\IeC {\v c}ki prikaz gradijentnog spusta\relax }}{16}{figure.caption.19}}
\citation{unm}
\@writefile{toc}{\contentsline {section}{\numberline {5.2}Algoritam Backpropagation}{17}{section.5.2}}
\@writefile{lof}{\contentsline {figure}{\numberline {5.3}{\ignorespaces Algoritam Backpropagation, stohasti\IeC {\v c}ka verzija\relax }}{17}{figure.caption.20}}
\@writefile{toc}{\contentsline {chapter}{\numberline {6}Arhitektura i dizajn sustava}{18}{chapter.6}}
\@writefile{lof}{\addvspace {10\p@ }}
\@writefile{lot}{\addvspace {10\p@ }}
\@writefile{toc}{\contentsline {section}{\numberline {6.1}Struktura i organizacija programskog rje\IeC {\v s}enja}{18}{section.6.1}}
\@writefile{lof}{\contentsline {figure}{\numberline {6.1}{\ignorespaces Korijenska struktura direktorija projekta\relax }}{18}{figure.caption.21}}
\@writefile{lof}{\contentsline {figure}{\numberline {6.2}{\ignorespaces Struktura podpaketa paketa fa\relax }}{19}{figure.caption.22}}
\@writefile{toc}{\contentsline {subsection}{\numberline {6.1.1}Paket fa.commands}{19}{subsection.6.1.1}}
\@writefile{lof}{\contentsline {figure}{\numberline {6.3}{\ignorespaces UML dijagram razreda paketa fa.commands\relax }}{19}{figure.caption.23}}
\@writefile{toc}{\contentsline {subsection}{\numberline {6.1.2}Paket fa.cvision}{20}{subsection.6.1.2}}
\@writefile{lof}{\contentsline {figure}{\numberline {6.4}{\ignorespaces Struktura podpaketa fa.cvision\relax }}{20}{figure.caption.24}}
\@writefile{toc}{\contentsline {subsection}{\numberline {6.1.3}Paket fa.inputs}{21}{subsection.6.1.3}}
\@writefile{lof}{\contentsline {figure}{\numberline {6.5}{\ignorespaces Struktura podpaketa fa.cvision\relax }}{21}{figure.caption.25}}
\@writefile{toc}{\contentsline {subsection}{\numberline {6.1.4}Paket fa.ui}{23}{subsection.6.1.4}}
\@writefile{lof}{\contentsline {figure}{\numberline {6.6}{\ignorespaces UML dijagram razreda paketa fa.ui.actions\relax }}{23}{figure.caption.26}}
\@writefile{toc}{\contentsline {subsection}{\numberline {6.1.5}Ostali direktoriji i paketi}{23}{subsection.6.1.5}}
\@writefile{toc}{\contentsline {section}{\numberline {6.2}Implementacija kori\IeC {\v s}tenog modela za u\IeC {\v c}enje}{24}{section.6.2}}
\@writefile{toc}{\contentsline {subsection}{\numberline {6.2.1}Op\IeC {\'c}enito o implementaciji dubokog u\IeC {\v c}enja u sustavu}{24}{subsection.6.2.1}}
\@writefile{toc}{\contentsline {subsection}{\numberline {6.2.2}MNIST}{24}{subsection.6.2.2}}
\@writefile{toc}{\contentsline {subsection}{\numberline {6.2.3}Kori\IeC {\v s}teni model za duboko u\IeC {\v c}enje}{24}{subsection.6.2.3}}
\@writefile{lof}{\contentsline {figure}{\numberline {6.7}{\ignorespaces Pojednostavnjeni prikaz kori\IeC {\v s}tenog modela za u\IeC {\v c}enje\relax }}{25}{figure.caption.27}}
\@writefile{lof}{\contentsline {figure}{\numberline {6.8}{\ignorespaces Prikaz koda za generiranje kori\IeC {\v s}tenog modela za u\IeC {\v c}enje\relax }}{25}{figure.caption.28}}
\@writefile{toc}{\contentsline {subsection}{\numberline {6.2.4}U\IeC {\v c}enje kori\IeC {\v s}tenog modela}{26}{subsection.6.2.4}}
\@writefile{lof}{\contentsline {figure}{\numberline {6.9}{\ignorespaces Prikaz koda za generiranje kori\IeC {\v s}tenog modela za u\IeC {\v c}enje\relax }}{26}{figure.caption.29}}
\@writefile{toc}{\contentsline {section}{\numberline {6.3}Skup podataka za u\IeC {\v c}enje}{27}{section.6.3}}
\@writefile{toc}{\contentsline {subsection}{\numberline {6.3.1}Inicijalni skup podataka}{27}{subsection.6.3.1}}
\@writefile{lof}{\contentsline {figure}{\numberline {6.10}{\ignorespaces Uzorci iz glavnog skupa podataka za u\IeC {\v c}enje\relax }}{27}{figure.caption.30}}
\@writefile{toc}{\contentsline {subsection}{\numberline {6.3.2}Skup podataka za dodatno u\IeC {\v c}enje}{27}{subsection.6.3.2}}
\@writefile{lof}{\contentsline {figure}{\numberline {6.11}{\ignorespaces Uzorci iz skupa podataka za dodatno u\IeC {\v c}enje\relax }}{27}{figure.caption.31}}
\@writefile{toc}{\contentsline {section}{\numberline {6.4}Grafi\IeC {\v c}ko korisni\IeC {\v c}ko su\IeC {\v c}elje}{28}{section.6.4}}
\@writefile{toc}{\contentsline {subsection}{\numberline {6.4.1}Recognize file}{28}{subsection.6.4.1}}
\@writefile{lof}{\contentsline {figure}{\numberline {6.12}{\ignorespaces GUI opcija za prepoznavanje odre\IeC {\dj }ene datoteke\relax }}{28}{figure.caption.32}}
\citation{raspb}
\@writefile{toc}{\contentsline {subsection}{\numberline {6.4.2}Raspberry Pi}{29}{subsection.6.4.2}}
\@writefile{lof}{\contentsline {figure}{\numberline {6.13}{\ignorespaces GUI opcija za prepoznavanje odre\IeC {\dj }ene datoteke\relax }}{29}{figure.caption.33}}
\@writefile{toc}{\contentsline {subsection}{\numberline {6.4.3}Train}{30}{subsection.6.4.3}}
\@writefile{lof}{\contentsline {figure}{\numberline {6.14}{\ignorespaces GUI opcija za prepoznavanje odre\IeC {\dj }ene datoteke\relax }}{30}{figure.caption.34}}
\@writefile{toc}{\contentsline {section}{\numberline {6.5}Naredbeni redak}{31}{section.6.5}}
\@writefile{lof}{\contentsline {figure}{\numberline {6.15}{\ignorespaces Prikaz opcije za pomo\IeC {\'c} u osnovnom na\IeC {\v c}inu rada\relax }}{31}{figure.caption.35}}
\@writefile{lof}{\contentsline {figure}{\numberline {6.16}{\ignorespaces Prikaze opcije za pomo\IeC {\'c} u "train" na\IeC {\v c}inu rada\relax }}{31}{figure.caption.36}}
\@writefile{toc}{\contentsline {section}{\numberline {6.6}Raspberry Pi}{32}{section.6.6}}
\@writefile{lof}{\contentsline {figure}{\numberline {6.17}{\ignorespaces Ugradbeno ra\IeC {\v c}unalo Raspberry Pi model 3B\relax }}{32}{figure.caption.37}}
\@writefile{lof}{\contentsline {figure}{\numberline {6.18}{\ignorespaces Raspberry Pi kamera\relax }}{32}{figure.caption.38}}
\bibstyle{plain}
\bibdata{literatura}
\@writefile{toc}{\contentsline {chapter}{\numberline {7}Zaklju\IeC {\v c}ak}{33}{chapter.7}}
\@writefile{lof}{\addvspace {10\p@ }}
\@writefile{lot}{\addvspace {10\p@ }}
\bibcite{cnn}{{1}{}{{}}{{}}}
\bibcite{unm}{{2}{}{{}}{{}}}
\bibcite{mit}{{3}{}{{}}{{}}}
\bibcite{raspb}{{4}{}{{}}{{}}}
\bibcite{du}{{5}{}{{}}{{}}}
\@writefile{toc}{\contentsline {chapter}{Literatura}{34}{chapter*.39}}
\providecommand\NAT@force@numbers{}\NAT@force@numbers
