\BOOKMARK [0][-]{chapter.1}{Uvod}{}% 1
\BOOKMARK [0][-]{chapter.2}{Opis problema}{}% 2
\BOOKMARK [0][-]{chapter.3}{Kori\235teni razvojni alati i biblioteke}{}% 3
\BOOKMARK [1][-]{section.3.1}{Python 3 \(3.5.2\)}{chapter.3}% 4
\BOOKMARK [1][-]{section.3.2}{Tensorflow}{chapter.3}% 5
\BOOKMARK [1][-]{section.3.3}{Keras}{chapter.3}% 6
\BOOKMARK [1][-]{section.3.4}{OpenCV}{chapter.3}% 7
\BOOKMARK [1][-]{section.3.5}{NumPy}{chapter.3}% 8
\BOOKMARK [1][-]{section.3.6}{OpenALPR}{chapter.3}% 9
\BOOKMARK [1][-]{section.3.7}{PyQt}{chapter.3}% 10
\BOOKMARK [1][-]{section.3.8}{PyCharm}{chapter.3}% 11
\BOOKMARK [1][-]{section.3.9}{Git}{chapter.3}% 12
\BOOKMARK [1][-]{section.3.10}{Linux Mint}{chapter.3}% 13
\BOOKMARK [1][-]{section.3.11}{Raspberry Pi 3 \(Model B+\)}{chapter.3}% 14
\BOOKMARK [0][-]{chapter.4}{Duboko ucenje i konvolucijske neuronske mre\236e}{}% 15
\BOOKMARK [1][-]{section.4.1}{Uvod}{chapter.4}% 16
\BOOKMARK [1][-]{section.4.2}{Unaprijedne neuronske mre\236e}{chapter.4}% 17
\BOOKMARK [2][-]{subsection.4.2.1}{Jednoslojni perceptron}{section.4.2}% 18
\BOOKMARK [2][-]{subsection.4.2.2}{Vi\235eslojni perceptron}{section.4.2}% 19
\BOOKMARK [2][-]{subsection.4.2.3}{Osnovni duboki modeli}{section.4.2}% 20
\BOOKMARK [1][-]{section.4.3}{Konvolucijske neuronske mre\236e}{chapter.4}% 21
\BOOKMARK [2][-]{subsection.4.3.1}{Struktura konvolucijskih neuronskih mre\236a}{section.4.3}% 22
\BOOKMARK [2][-]{subsection.4.3.2}{Znacajke konvolucijskih neuronskih mre\236a}{section.4.3}% 23
\BOOKMARK [0][-]{chapter.5}{Ucenje konvolucijskih neuronskih mre\236a}{}% 24
\BOOKMARK [1][-]{section.5.1}{Gradijentni spust}{chapter.5}% 25
\BOOKMARK [2][-]{subsection.5.1.1}{Varijante gradijentnog spusta}{section.5.1}% 26
\BOOKMARK [1][-]{section.5.2}{Algoritam Backpropagation}{chapter.5}% 27
\BOOKMARK [0][-]{chapter.6}{Arhitektura i dizajn sustava}{}% 28
\BOOKMARK [1][-]{section.6.1}{Struktura i organizacija programskog rje\235enja}{chapter.6}% 29
\BOOKMARK [2][-]{subsection.6.1.1}{Paket fa.commands}{section.6.1}% 30
\BOOKMARK [2][-]{subsection.6.1.2}{Paket fa.cvision}{section.6.1}% 31
\BOOKMARK [2][-]{subsection.6.1.3}{Paket fa.inputs}{section.6.1}% 32
\BOOKMARK [2][-]{subsection.6.1.4}{Paket fa.ui}{section.6.1}% 33
\BOOKMARK [2][-]{subsection.6.1.5}{Ostali direktoriji i paketi}{section.6.1}% 34
\BOOKMARK [1][-]{section.6.2}{Implementacija kori\235tenog modela za ucenje}{chapter.6}% 35
\BOOKMARK [2][-]{subsection.6.2.1}{Opcenito o implementaciji dubokog ucenja u sustavu}{section.6.2}% 36
\BOOKMARK [2][-]{subsection.6.2.2}{MNIST}{section.6.2}% 37
\BOOKMARK [2][-]{subsection.6.2.3}{Kori\235teni model za duboko ucenje}{section.6.2}% 38
\BOOKMARK [2][-]{subsection.6.2.4}{Ucenje kori\235tenog modela}{section.6.2}% 39
\BOOKMARK [1][-]{section.6.3}{Skup podataka za ucenje}{chapter.6}% 40
\BOOKMARK [2][-]{subsection.6.3.1}{Inicijalni skup podataka}{section.6.3}% 41
\BOOKMARK [2][-]{subsection.6.3.2}{Skup podataka za dodatno ucenje}{section.6.3}% 42
\BOOKMARK [1][-]{section.6.4}{Graficko korisnicko sucelje}{chapter.6}% 43
\BOOKMARK [2][-]{subsection.6.4.1}{Recognize file}{section.6.4}% 44
\BOOKMARK [2][-]{subsection.6.4.2}{Raspberry Pi}{section.6.4}% 45
\BOOKMARK [2][-]{subsection.6.4.3}{Train}{section.6.4}% 46
\BOOKMARK [1][-]{section.6.5}{Naredbeni redak}{chapter.6}% 47
\BOOKMARK [1][-]{section.6.6}{Raspberry Pi}{chapter.6}% 48
\BOOKMARK [0][-]{chapter.7}{Zakljucak}{}% 49
\BOOKMARK [0][-]{chapter*.39}{Literatura}{}% 50
